3
…
5.6.4 Useful summary functions

not_cancelled %>%
    group_by(year, month, day) %>%
    summarise(first = min(dep_time), last = max(dep_time))

## Source: local data frame [365 x 5]
## Groups: year, month [?]
## 
##     year month   day first  last
##    <int> <int> <int> <int> <int>
## 1   2013     1     1   517  2356
## 2   2013     1     2    42  2354
## 3   2013     1     3    32  2349
## 4   2013     1     4    25  2358
## 5   2013     1     5    14  2357
## 6   2013     1     6    16  2355
## 7   2013     1     7    49  2359
## 8   2013     1     8   454  2351
## 9   2013     1     9     2  2252
## 10  2013     1    10     3  2320
## # ... with 355 more rows

# first and last flight of each day
not_cancelled %>%
    group_by(year, month, day) %>%
    summarise(first = first(dep_time), last = last(dep_time))

## Source: local data frame [365 x 5]
## Groups: year, month [?]
## 
##     year month   day first  last
##    <int> <int> <int> <int> <int>
## 1   2013     1     1   517  2356
## 2   2013     1     2    42  2354
## 3   2013     1     3    32  2349
## 4   2013     1     4    25  2358
## 5   2013     1     5    14  2357
## 6   2013     1     6    16  2355
## 7   2013     1     7    49  2359
## 8   2013     1     8   454  2351
## 9   2013     1     9     2  2252
## 10  2013     1    10     3  2320
## # ... with 355 more rows

# same as above
# other sumary functions: quantile(x, 0.25)

not_cancelled %>%
    group_by(year, month, day) %>%
    mutate(r = min_rank(desc(dep_time))) %>%  # dep_timerankcolumn
    filter(r %in% range(r)) %>% # group_by1
    dplyr::select(month, day, r, dep_time)

## Adding missing grouping variables: `year`

## Source: local data frame [770 x 5]
## Groups: year, month, day [365]
## 
##     year month   day     r dep_time
##    <int> <int> <int> <int>    <int>
## 1   2013     1     1   831      517
## 2   2013     1     1     1     2356
## 3   2013     1     2   928       42
## 4   2013     1     2     1     2354
## 5   2013     1     3   900       32
## 6   2013     1     3     1     2349
## 7   2013     1     4   908       25
## 8   2013     1     4     1     2358
## 9   2013     1     4     1     2358
## 10  2013     1     5   717       14
## # ... with 760 more rows
…
df %>% count(num)

## # A tibble: 2  2
##     num     n
##   <dbl> <int>
## 1     1     4
## 2     2     4

not_cancelled %>%
    group_by(year, month, day) %>%
    summarise(n_early = sum(dep_time < 500))

## Source: local data frame [365 x 4]
## Groups: year, month [?]
## 
##     year month   day n_early
##    <int> <int> <int>   <int>
## 1   2013     1     1       0
## 2   2013     1     2       3
## 3   2013     1     3       4
## 4   2013     1     4       3
## 5   2013     1     5       3
## 6   2013     1     6       2
## 7   2013     1     7       2
## 8   2013     1     8       1
## 9   2013     1     9       3
## 10  2013     1    10       3
## # ... with 355 more rows

# take sum for dep_time < 500

5.6.5 Grouping by multiple variables

daily <- group_by(flights, year, month, day)
(per_day <- summarise(daily, flights = n()))

## Source: local data frame [365 x 4]
## Groups: year, month [?]
## 
##     year month   day flights
##    <int> <int> <int>   <int>
## 1   2013     1     1     842
## 2   2013     1     2     943
## 3   2013     1     3     914
## 4   2013     1     4     915
## 5   2013     1     5     720
## 6   2013     1     6     832
## 7   2013     1     7     933
## 8   2013     1     8     899
## 9   2013     1     9     902
## 10  2013     1    10     932
## # ... with 355 more rows
…
5.7 Grouped mutates (and filters)

flights_sml %>%
    group_by(year, month, day) %>%
    filter(rank(desc(arr_delay)) < 10) 

## Source: local data frame [3,306 x 7]
## Groups: year, month, day [365]
## 
##     year month   day dep_delay arr_delay distance air_time
##    <int> <int> <int>     <dbl>     <dbl>    <dbl>    <dbl>
## 1   2013     1     1       853       851      184       41
## 2   2013     1     1       290       338     1134      213
## 3   2013     1     1       260       263      266       46
## 4   2013     1     1       157       174      213       60
## 5   2013     1     1       216       222      708      121
## 6   2013     1     1       255       250      589      115
## 7   2013     1     1       285       246     1085      146
## 8   2013     1     1       192       191      199       44
## 9   2013     1     1       379       456     1092      222
## 10  2013     1     2       224       207      550       94
## # ... with 3,296 more rows
…
# there is no flight in 1 AM

4

flights %>%
    group_by(year, month, day) %>%
    filter(!is.na(dep_delay)) %>%
    mutate(lag_delay = lag(dep_delay))

## Source: local data frame [328,521 x 20]
## Groups: year, month, day [365]
## 
##     year month   day dep_time sched_dep_time dep_delay arr_time
##    <int> <int> <int>    <int>          <int>     <dbl>    <int>
## 1   2013     1     1      517            515         2      830
## 2   2013     1     1      533            529         4      850
## 3   2013     1     1      542            540         2      923
## 4   2013     1     1      544            545        -1     1004
## 5   2013     1     1      554            600        -6      812
## 6   2013     1     1      554            558        -4      740
## 7   2013     1     1      555            600        -5      913
## 8   2013     1     1      557            600        -3      709
## 9   2013     1     1      557            600        -3      838
## 10  2013     1     1      558            600        -2      753
## # ... with 328,511 more rows, and 13 more variables: sched_arr_time <int>,
## #   arr_delay <dbl>, carrier <chr>, flight <int>, tailnum <chr>,
## #   origin <chr>, dest <chr>, air_time <dbl>, distance <dbl>, hour <dbl>,
## #   minute <dbl>, time_hour <dttm>, lag_delay <dbl>

# the method of answer is not good

7

# experiment
flights %>%
    dplyr::select(dest, carrier) %>%
    count(dest, carrier)

## Source: local data frame [314 x 3]
## Groups: dest [?]
## 
##     dest carrier     n
##    <chr>   <chr> <int>
## 1    ABQ      B6   254
## 2    ACK      B6   265
## 3    ALB      EV   439
## 4    ANC      UA     8
## 5    ATL      9E    59
## 6    ATL      DL 10571
## 7    ATL      EV  1764
## 8    ATL      FL  2337
## 9    ATL      MQ  2322
## 10   ATL      UA   103
## # ... with 304 more rows

flights %>%
    group_by(dest, carrier) %>%
    dplyr::select(dest, carrier) %>%
    count(carrier)

## Source: local data frame [314 x 3]
## Groups: dest [?]
## 
##     dest carrier     n
##    <chr>   <chr> <int>
## 1    ABQ      B6   254
## 2    ACK      B6   265
## 3    ALB      EV   439
## 4    ANC      UA     8
## 5    ATL      9E    59
## 6    ATL      DL 10571
## 7    ATL      EV  1764
## 8    ATL      FL  2337
## 9    ATL      MQ  2322
## 10   ATL      UA   103
## # ... with 304 more rows
…
